<?xml version="1.0" encoding="UTF-8" standalone="no"?>
<!-- Created with Inkscape (http://www.inkscape.org/) -->

<svg
   width="210mm"
   height="297mm"
   viewBox="0 0 210 297"
   version="1.1"
   id="svg5"
   inkscape:version="1.2.2 (b0a8486541, 2022-12-01)"
   sodipodi:docname="Sozi-page-5row-2col.svg"
   xmlns:inkscape="http://www.inkscape.org/namespaces/inkscape"
   xmlns:sodipodi="http://sodipodi.sourceforge.net/DTD/sodipodi-0.dtd"
   xmlns="http://www.w3.org/2000/svg"
   xmlns:svg="http://www.w3.org/2000/svg">
  <sodipodi:namedview
     id="namedview7"
     pagecolor="#ffffff"
     bordercolor="#000000"
     borderopacity="0.25"
     inkscape:showpageshadow="2"
     inkscape:pageopacity="0.0"
     inkscape:pagecheckerboard="0"
     inkscape:deskcolor="#d1d1d1"
     inkscape:document-units="mm"
     showgrid="false"
     inkscape:zoom="0.24063257"
     inkscape:cx="490.37419"
     inkscape:cy="777.11842"
     inkscape:window-width="1600"
     inkscape:window-height="831"
     inkscape:window-x="0"
     inkscape:window-y="0"
     inkscape:window-maximized="1"
     inkscape:current-layer="layer3" />
  <defs
     id="defs2">
    <rect
       x="-417.00772"
       y="0.45914581"
       width="311.74854"
       height="241.57384"
       id="rect4607" />
    <rect
       x="-417.00772"
       y="0.45914581"
       width="311.74854"
       height="241.57384"
       id="rect4719" />
    <rect
       x="-417.00772"
       y="0.45914581"
       width="311.74854"
       height="241.57384"
       id="rect4762" />
    <rect
       x="-417.00772"
       y="0.45914581"
       width="311.74854"
       height="241.57384"
       id="rect4768" />
    <rect
       x="-417.00772"
       y="0.45914581"
       width="311.74854"
       height="241.57384"
       id="rect7579" />
    <rect
       x="-417.00772"
       y="0.45914581"
       width="311.74854"
       height="241.57384"
       id="rect7581" />
    <rect
       x="-417.00772"
       y="0.45914581"
       width="311.74854"
       height="241.57384"
       id="rect8163" />
    <rect
       x="-417.00772"
       y="0.45914581"
       width="311.74854"
       height="241.57384"
       id="rect8169" />
    <rect
       x="-417.00772"
       y="0.45914581"
       width="311.74854"
       height="241.57384"
       id="rect8175" />
    <rect
       x="-417.00772"
       y="0.45914581"
       width="311.74854"
       height="241.57384"
       id="rect8181" />
    <rect
       x="-417.00772"
       y="0.45914581"
       width="311.74854"
       height="241.57384"
       id="rect8187" />
    <rect
       x="-417.00772"
       y="0.45914581"
       width="311.74854"
       height="241.57384"
       id="rect8193" />
    <rect
       x="-417.00772"
       y="0.45914581"
       width="311.74854"
       height="241.57384"
       id="rect8199" />
  </defs>
  <g
     inkscape:groupmode="layer"
     id="layer3"
     inkscape:label="slide-view-samples"
     transform="translate(165.93498,103.13047)">
    <rect
       style="opacity:0.8;fill:#c6c6c6;fill-opacity:1;stroke:#828282;stroke-width:0.36;stroke-dasharray:none;stroke-dashoffset:0;stroke-opacity:1"
       id="rect8257"
       width="89.958336"
       height="50.601566"
       x="-165.88695"
       y="-173.17667"
       inkscape:label="sample-page-5th" />
    <rect
       style="opacity:0.7;fill:#000000;fill-opacity:1;stroke:#010101;stroke-width:0.341159;stroke-dasharray:none;stroke-dashoffset:0;stroke-opacity:1"
       id="rect8255"
       width="41.992172"
       height="23.47134"
       x="-119.82701"
       y="-172.21486"
       inkscape:label="sample-page-5th-4th-2" />
    <rect
       style="opacity:0.7;fill:#000000;fill-opacity:1;stroke:#010101;stroke-width:0.341159;stroke-dasharray:none;stroke-dashoffset:0;stroke-opacity:1"
       id="rect8253"
       width="41.992172"
       height="23.47134"
       x="-164.55986"
       y="-172.1993"
       inkscape:label="sample-page-5th-4th-1" />
    <rect
       style="opacity:0.7;fill:#000000;fill-opacity:1;stroke:#010101;stroke-width:0.341159;stroke-dasharray:none;stroke-dashoffset:0;stroke-opacity:1"
       id="rect8262"
       width="41.992172"
       height="23.47134"
       x="-164.52228"
       y="-147.34401"
       inkscape:label="sample-page-5th-4th-3" />
    <rect
       style="opacity:0.7;fill:#000000;fill-opacity:1;stroke:#010101;stroke-width:0.341159;stroke-dasharray:none;stroke-dashoffset:0;stroke-opacity:1"
       id="rect8264"
       width="41.992172"
       height="23.47134"
       x="-119.85662"
       y="-147.57103"
       inkscape:label="sample-page-5th-4th-4" />
    <g
       id="g8399"
       inkscape:label="slide-view-4thed"
       transform="translate(-169.2958,-70.18969)">
      <rect
         style="opacity:0.8;fill:#c6c6c6;fill-opacity:1;stroke:#828282;stroke-width:0.36;stroke-dasharray:none;stroke-dashoffset:0;stroke-opacity:1"
         id="rect8384"
         width="89.958336"
         height="50.601566"
         x="100.54568"
         y="-102.95047"
         inkscape:label="sample-page-5th" />
      <rect
         style="opacity:0.7;fill:#000000;fill-opacity:1;stroke:#010101;stroke-width:0.341159;stroke-dasharray:none;stroke-dashoffset:0;stroke-opacity:1"
         id="rect8392"
         width="41.992172"
         height="23.47134"
         x="146.57599"
         y="-77.344841"
         inkscape:label="sample-page-5th-4th-4" />
      <rect
         style="opacity:0.7;fill:#000000;fill-opacity:1;stroke:#010101;stroke-width:0.341159;stroke-dasharray:none;stroke-dashoffset:0;stroke-opacity:1"
         id="rect8390"
         width="41.992172"
         height="23.47134"
         x="101.91036"
         y="-77.117821"
         inkscape:label="sample-page-5th-4th-3" />
      <rect
         style="opacity:0.7;fill:#000000;fill-opacity:1;stroke:#010101;stroke-width:0.341159;stroke-dasharray:none;stroke-dashoffset:0;stroke-opacity:1"
         id="rect8386"
         width="41.992172"
         height="23.47134"
         x="146.60561"
         y="-101.98867"
         inkscape:label="sample-page-5th-4th-2" />
      <rect
         style="opacity:0.7;fill:#000000;fill-opacity:1;stroke:#010101;stroke-width:0.341159;stroke-dasharray:none;stroke-dashoffset:0;stroke-opacity:1"
         id="rect8388"
         width="41.992172"
         height="23.47134"
         x="101.87278"
         y="-101.97311"
         inkscape:label="sample-page-5th-4th-1" />
    </g>
  </g>
  <g
     inkscape:groupmode="layer"
     id="layer2"
     inkscape:label="Slide-Overview"
     transform="translate(165.93498,103.13047)">
    <rect
       style="opacity:0.05;fill:#e6e6e6;fill-opacity:1;stroke:#101010;stroke-width:1.8854;stroke-dasharray:none;stroke-dashoffset:0;stroke-opacity:1"
       id="rect11106"
       width="538.55627"
       height="303.96872"
       x="-331.21069"
       y="-103.67555"
       inkscape:label="Rectangle-Last" />
    <rect
       style="opacity:0.1;fill:#e6e6e6;fill-opacity:1;stroke:#080808;stroke-width:1.761;stroke-dasharray:3.522, 1.761;stroke-dashoffset:0;stroke-opacity:1"
       id="rect5816"
       width="533.21619"
       height="299.12012"
       x="-328.57068"
       y="-101.19568"
       inkscape:label="Rectangle-First" />
    <rect
       style="opacity:0.8;fill:#c6c6c6;fill-opacity:1;stroke:#cdcdcd;stroke-width:0.56;stroke-dasharray:0.56, 3.36;stroke-dashoffset:0;stroke-opacity:1"
       id="rect4528"
       width="89.958336"
       height="50.601566"
       x="-56.478859"
       y="135.88678"
       inkscape:label="bg-10" />
    <rect
       style="opacity:0.8;fill:#c6c6c6;fill-opacity:1;stroke:#cdcdcd;stroke-width:0.56;stroke-dasharray:0.56, 3.36;stroke-dashoffset:0;stroke-opacity:1"
       id="rect4532"
       width="89.958336"
       height="50.601566"
       x="-153.87578"
       y="135.88678"
       inkscape:label="bg-9" />
    <rect
       style="opacity:0.8;fill:#c6c6c6;fill-opacity:1;stroke:#cdcdcd;stroke-width:0.56;stroke-dasharray:0.56, 3.36;stroke-dashoffset:0;stroke-opacity:1"
       id="rect4546"
       width="89.958336"
       height="50.601566"
       x="-56.478859"
       y="77.841385"
       inkscape:label="bg-8" />
    <rect
       style="opacity:0.8;fill:#c6c6c6;fill-opacity:1;stroke:#cdcdcd;stroke-width:0.56;stroke-dasharray:0.56, 3.36;stroke-dashoffset:0;stroke-opacity:1"
       id="rect4538"
       width="89.958336"
       height="50.601566"
       x="-153.87578"
       y="19.796007"
       inkscape:label="bg-5" />
    <rect
       style="opacity:0.8;fill:#c6c6c6;fill-opacity:1;stroke:#cdcdcd;stroke-width:0.56;stroke-dasharray:0.56, 3.36;stroke-dashoffset:0;stroke-opacity:1"
       id="rect4540"
       width="89.958336"
       height="50.601566"
       x="-153.87578"
       y="77.841385"
       inkscape:label="bg-7" />
    <rect
       style="opacity:0.8;fill:#c6c6c6;fill-opacity:1;stroke:#cdcdcd;stroke-width:0.56;stroke-dasharray:0.56, 3.36;stroke-dashoffset:0;stroke-opacity:1"
       id="rect4544"
       width="89.958336"
       height="50.601566"
       x="-56.478859"
       y="19.796007"
       inkscape:label="bg-6" />
    <rect
       style="opacity:0.8;fill:#c6c6c6;fill-opacity:1;stroke:#cdcdcd;stroke-width:0.56;stroke-dasharray:0.56, 3.36;stroke-dashoffset:0;stroke-opacity:1"
       id="rect4542"
       width="89.958336"
       height="50.601566"
       x="-56.478859"
       y="-38.249393"
       inkscape:label="bg-4" />
    <rect
       style="opacity:0.8;fill:#c6c6c6;fill-opacity:1;stroke:#cdcdcd;stroke-width:0.56;stroke-dasharray:0.56, 3.36;stroke-dashoffset:0;stroke-opacity:1"
       id="rect4536"
       width="89.958336"
       height="50.601566"
       x="-153.87578"
       y="-38.249393"
       inkscape:label="bg-3" />
    <text
       xml:space="preserve"
       transform="matrix(0.26458333,0,0,0.26458333,-1.2112445,-22.480693)"
       id="text7577"
       style="font-size:48px;white-space:pre;shape-inside:url(#rect7581);display:inline;opacity:0.8;fill:#c6c6c6;fill-opacity:1;stroke:#dddddd;stroke-width:2.11654;stroke-dasharray:none;stroke-dashoffset:0;stroke-opacity:1"
       inkscape:label="text-3"><tspan
         x="-417.00781"
         y="47.738984"
         id="tspan870"><tspan
           style="fill:#000000;stroke:#010101"
           id="tspan868">3</tspan></tspan></text>
    <rect
       style="opacity:0.8;fill:#c6c6c6;fill-opacity:1;stroke:#cdcdcd;stroke-width:0.56;stroke-dasharray:0.56, 3.36;stroke-dashoffset:0;stroke-opacity:1"
       id="rect223"
       width="89.958336"
       height="50.601566"
       x="-56.478859"
       y="-96.294785"
       inkscape:label="bg-2" />
    <text
       xml:space="preserve"
       transform="matrix(0.26458333,0,0,0.26458333,95.658624,-78.925939)"
       id="text4717"
       style="font-size:48px;white-space:pre;shape-inside:url(#rect4719);display:inline;opacity:0.8;fill:#c6c6c6;fill-opacity:1;stroke:#dddddd;stroke-width:2.11654;stroke-dasharray:2.11654, 12.6992;stroke-dashoffset:0;stroke-opacity:1"
       inkscape:label="text-2"><tspan
         x="-417.00781"
         y="47.738984"
         id="tspan874"><tspan
           style="opacity:1;fill:#000000"
           id="tspan872">2
</tspan></tspan></text>
    <rect
       style="opacity:0.8;fill:#c6c6c6;fill-opacity:1;stroke:#cdcdcd;stroke-width:0.56;stroke-dasharray:0.56, 3.36;stroke-dashoffset:0;stroke-opacity:1"
       id="rect4534"
       width="89.958336"
       height="50.601566"
       x="-153.87578"
       y="-96.294785"
       inkscape:label="bg-1" />
    <text
       xml:space="preserve"
       transform="matrix(0.26458333,0,0,0.26458333,-1.2493445,-78.925939)"
       id="text4605"
       style="font-size:48px;white-space:pre;shape-inside:url(#rect4607);display:inline;opacity:0.8;fill:#c6c6c6;fill-opacity:1;stroke:#dddddd;stroke-width:2.11654;stroke-dasharray:2.11654, 12.6992;stroke-dashoffset:0;stroke-opacity:1"
       inkscape:label="text-1"><tspan
         x="-417.00781"
         y="47.738984"
         id="tspan878"><tspan
           style="opacity:1;fill:#000000"
           id="tspan876">1</tspan></tspan></text>
    <text
       xml:space="preserve"
       transform="matrix(0.26458333,0,0,0.26458333,95.658624,-22.480693)"
       id="text8161"
       style="font-size:48px;white-space:pre;shape-inside:url(#rect8163);display:inline;opacity:0.8;fill:#c6c6c6;fill-opacity:1;stroke:#dddddd;stroke-width:2.11654;stroke-dasharray:none;stroke-dashoffset:0;stroke-opacity:1"
       inkscape:label="text-3"><tspan
         x="-417.00781"
         y="47.738984"
         id="tspan882"><tspan
           style="fill:#000000;stroke:#010101"
           id="tspan880">4</tspan></tspan></text>
    <text
       xml:space="preserve"
       transform="matrix(0.26458333,0,0,0.26458333,-1.9615345,35.991793)"
       id="text8167"
       style="font-size:48px;white-space:pre;shape-inside:url(#rect8169);display:inline;opacity:0.8;fill:#c6c6c6;fill-opacity:1;stroke:#dddddd;stroke-width:2.11654;stroke-dasharray:none;stroke-dashoffset:0;stroke-opacity:1"
       inkscape:label="text-5"><tspan
         x="-417.00781"
         y="47.738984"
         id="tspan886"><tspan
           style="fill:#000000;stroke:#010101"
           id="tspan884">5</tspan></tspan></text>
    <text
       xml:space="preserve"
       transform="matrix(0.26458333,0,0,0.26458333,96.953934,32.893993)"
       id="text8173"
       style="font-size:48px;white-space:pre;shape-inside:url(#rect8175);display:inline;opacity:0.8;fill:#c6c6c6;fill-opacity:1;stroke:#dddddd;stroke-width:2.11654;stroke-dasharray:none;stroke-dashoffset:0;stroke-opacity:1"
       inkscape:label="text-6"><tspan
         x="-417.00781"
         y="47.738984"
         id="tspan890"><tspan
           style="fill:#000000;stroke:#010101"
           id="tspan888">6</tspan></tspan></text>
    <text
       xml:space="preserve"
       transform="matrix(0.26458333,0,0,0.26458333,-2.9789445,92.686073)"
       id="text8179"
       style="font-size:48px;white-space:pre;shape-inside:url(#rect8181);display:inline;opacity:0.8;fill:#c6c6c6;fill-opacity:1;stroke:#dddddd;stroke-width:2.11654;stroke-dasharray:none;stroke-dashoffset:0;stroke-opacity:1"
       inkscape:label="text-7"><tspan
         x="-417.00781"
         y="47.738984"
         id="tspan894"><tspan
           style="fill:#000000;stroke:#010101"
           id="tspan892">7</tspan></tspan></text>
    <text
       xml:space="preserve"
       transform="matrix(0.26458333,0,0,0.26458333,94.891774,90.871433)"
       id="text8185"
       style="font-size:48px;white-space:pre;shape-inside:url(#rect8187);display:inline;opacity:0.8;fill:#c6c6c6;fill-opacity:1;stroke:#dddddd;stroke-width:2.11654;stroke-dasharray:none;stroke-dashoffset:0;stroke-opacity:1"
       inkscape:label="text-8"><tspan
         x="-417.00781"
         y="47.738984"
         id="tspan898"><tspan
           style="fill:#000000;stroke:#010101"
           id="tspan896">8</tspan></tspan></text>
    <text
       xml:space="preserve"
       transform="matrix(0.26458333,0,0,0.26458333,-4.3167645,148.91872)"
       id="text8191"
       style="font-size:48px;white-space:pre;shape-inside:url(#rect8193);display:inline;opacity:0.8;fill:#c6c6c6;fill-opacity:1;stroke:#dddddd;stroke-width:2.11654;stroke-dasharray:none;stroke-dashoffset:0;stroke-opacity:1"
       inkscape:label="text-3"><tspan
         x="-417.00781"
         y="47.738984"
         id="tspan902"><tspan
           style="fill:#000000;stroke:#010101"
           id="tspan900">9</tspan></tspan></text>
    <text
       xml:space="preserve"
       transform="matrix(0.26458333,0,0,0.26458333,95.108924,150.69692)"
       id="text8197"
       style="font-size:48px;white-space:pre;shape-inside:url(#rect8199);display:inline;opacity:0.8;fill:#c6c6c6;fill-opacity:1;stroke:#dddddd;stroke-width:2.11654;stroke-dasharray:none;stroke-dashoffset:0;stroke-opacity:1"
       inkscape:label="text-10"><tspan
         x="-417.00781"
         y="47.738984"
         id="tspan906"><tspan
           style="fill:#000000;stroke:#010101"
           id="tspan904">10</tspan></tspan></text>
  </g>
</svg>
