Figure 6.'

Largest Slum Populations by Country

China
India
Brazil
Nigeria
Pakistan
Bangladesh
Indonesia
Iran
Philippines

Vietnam,

Slum % urban pop.
378

36.6
79.2
736
847
23.1
44.2

42.6
19.6
37.0
68.1

39.9
33.1
92.1
99.4
85.7
474

Number (millions)

193.8,
158.4
517
M6
38.6
304
20.9
20.4
20.1
19.1
147
14.2
13.0
12.8
18
11.0
11.0
10.2
10.1
9.2
